<?xml version="1.0" encoding="UTF-8" standalone="no"?>
<svg
   xmlns:dc="http://purl.org/dc/elements/1.1/"
   xmlns:cc="http://creativecommons.org/ns#"
   xmlns:rdf="http://www.w3.org/1999/02/22-rdf-syntax-ns#"
   xmlns:svg="http://www.w3.org/2000/svg"
   xmlns="http://www.w3.org/2000/svg"
   xmlns:sodipodi="http://sodipodi.sourceforge.net/DTD/sodipodi-0.dtd"
   xmlns:inkscape="http://www.inkscape.org/namespaces/inkscape"
   width="8"
   height="8"
   viewBox="0 0 8 8"
   version="1"
   id="svg12"
   sodipodi:docname="devicon.svg"
   inkscape:version="0.92.3 (2405546, 2018-03-11)">
  <metadata
     id="metadata18">
    <rdf:RDF>
      <cc:Work
         rdf:about="">
        <dc:format>image/svg+xml</dc:format>
        <dc:type
           rdf:resource="http://purl.org/dc/dcmitype/StillImage" />
        <dc:title />
      </cc:Work>
    </rdf:RDF>
  </metadata>
  <defs
     id="defs16">
    <filter
       style="color-interpolation-filters:sRGB;"
       inkscape:label="Color Shift"
       id="filter243">
      <feColorMatrix
         type="hueRotate"
         values="81"
         result="color1"
         id="feColorMatrix239" />
      <feColorMatrix
         type="saturate"
         values="0.32"
         result="color2"
         id="feColorMatrix241" />
    </filter>
  </defs>
  <sodipodi:namedview
     pagecolor="#ffffff"
     bordercolor="#666666"
     borderopacity="1"
     objecttolerance="10"
     gridtolerance="10"
     guidetolerance="10"
     inkscape:pageopacity="0"
     inkscape:pageshadow="2"
     inkscape:window-width="1920"
     inkscape:window-height="1017"
     id="namedview14"
     showgrid="false"
     inkscape:zoom="29.5"
     inkscape:cx="-1.779661"
     inkscape:cy="-4.1355932"
     inkscape:window-x="-8"
     inkscape:window-y="-8"
     inkscape:window-maximized="1"
     inkscape:current-layer="svg12" />
  <g
     transform="matrix(0.49576271,0,0,0.37853107,0,0.07627118)"
     id="g105"
     style="filter:url(#filter243)">
    <path
       style="fill:#000000;fill-opacity:0"
       d="M 0,0.5 V 0 H 0.5 1 1.5 2 2.5 3 3.5 4 L 3.875,0.375 Q 3.75,0.75 3.5,1 3.25,1.25 3,1.5 2.75,1.75 2.5,2 2.25,2.25 2.125,2.625 2,3 2,3.5 2,4 1.875,4.375 1.75,4.75 1.5,5 1.25,5.25 1.125,5.625 1,6 0.875,6.375 0.75,6.75 0.375,6.875 L 0,7 V 6.5 6 5.5 5 4.5 4 3.5 3 2.5 2 1.5 1 0.5"
       id="path11"
       inkscape:connector-curvature="0" />
    <path
       style="fill:#3e3250;fill-opacity:1"
       d="M 3.875,0.375 4,0 H 4.5 5 5.5 6 6.5 7 7.5 8 8.5 9 9.5 10 10.5 11 11.5 12 l 0.125,0.375 Q 12.25,0.75 12.5,1 12.75,1.25 13,1.5 13.25,1.75 13.5,2 13.75,2.25 13.875,2.625 14,3 14,3.5 14,4 14.125,4.375 14.25,4.75 14.5,5 14.75,5.25 14.875,5.625 15,6 15.125,6.375 q 0.125,0.375 0.5,0.5 L 16,7 V 7.5 8 8.5 9 9.5 10 l -0.375,0.125 Q 15.25,10.25 15,10.5 14.75,10.75 14.5,11 14.25,11.25 14.125,11.625 14,12 14.125,12.375 14.25,12.75 14.5,13 q 0.25,0.25 0.5,0.5 0.25,0.25 0.625,0.375 L 16,14 v 0.5 0.5 0.5 0.5 0.5 0.5 l -0.375,0.125 Q 15.25,17.25 15,17.5 14.75,17.75 14.375,17.875 14,18 13.5,18 q -0.5,0 -0.875,0.125 -0.375,0.125 -0.5,0.5 -0.125,0.375 0,0.75 0.125,0.375 0.375,0.625 0.25,0.25 0.375,0.625 L 13,21 H 12.5 12 11.5 11 10.5 10 9.5 9 V 20.5 Q 9,20 8.875,19.625 8.75,19.25 8.375,19.125 8,19 7.625,19.125 7.25,19.25 7.125,19.625 7,20 7,20.5 V 21 H 6.5 6 5.5 5 4.5 4 3.5 3 L 3.125,20.625 Q 3.25,20.25 3.5,20 3.75,19.75 3.875,19.375 4,19 3.875,18.625 3.75,18.25 3.375,18.125 3,18 2.5,18 2,18 1.625,17.875 1.25,17.75 1,17.5 0.75,17.25 0.375,17.125 L 0,17 V 16.5 16 15.5 15 14.5 14 L 0.375,13.875 Q 0.75,13.75 1,13.5 1.25,13.25 1.5,13 1.75,12.75 1.875,12.375 2,12 1.875,11.625 1.75,11.25 1.5,11 1.25,10.75 1,10.5 0.75,10.25 0.375,10.125 L 0,10 V 9.5 9 8.5 8 7.5 7 L 0.375,6.875 Q 0.75,6.75 0.875,6.375 1,6 1.125,5.625 1.25,5.25 1.5,5 1.75,4.75 1.875,4.375 2,4 2,3.5 2,3 2.125,2.625 2.25,2.25 2.5,2 2.75,1.75 3,1.5 3.25,1.25 3.5,1 3.75,0.75 3.875,0.375 M 2.984375,16.859375 2.90625,16.90625 3.328125,16.828125 q 0.421875,-0.07813 0.5,-0.5 L 3.90625,15.90625 3.859375,15.984375 3.8125,16.0625 3.90625,15.90625 Q 4,15.75 4,15.5 V 15.25 15.625 16 L 3.875,15.625 Q 3.75,15.25 3.375,15.125 L 3,15 2.875,14.625 Q 2.75,14.25 2.328125,14.171875 L 1.90625,14.09375 1.984375,14.140625 2.0625,14.1875 1.90625,14.09375 Q 1.75,14 1.5,14 H 1.25 1.625 2 L 1.625,14.125 Q 1.25,14.25 1.125,14.625 1,15 1,15.5 1,16 1.125,16.375 1.25,16.75 1.625,16.875 2,17 2.5,17 H 3 2.625 2.25 2.5 q 0.25,0 0.40625,-0.09375 L 3.0625,16.8125 2.984375,16.859375 M 2.90625,14.96875 3,15 3.28125,15.09375 3.5625,15.1875 3.375,15.125 Q 3.1875,15.0625 3,15 L 2.8125,14.9375 2.90625,14.96875 M 5.25,18.5 q 0,0.25 0.25,0.25 0.25,0 0.25,-0.25 0,-0.25 -0.25,-0.25 -0.25,0 -0.25,0.25 M 8.5,18 Q 9,18 9.375,17.875 9.75,17.75 10,17.5 q 0.25,-0.25 0.5,-0.5 0.25,-0.25 0.25,-0.5 0,-0.25 -0.25,-0.25 -0.25,0 -0.5,0.25 Q 9.75,16.75 9.375,16.875 9,17 8.5,17 8,17 7.5,17 7,17 6.625,16.875 6.25,16.75 6,16.5 5.75,16.25 5.5,16.25 q -0.25,0 -0.25,0.25 0,0.25 0.25,0.5 0.25,0.25 0.5,0.5 0.25,0.25 0.625,0.375 Q 7,18 7.5,18 8,18 8.5,18 M 8.9375,15.8125 8.875,15.875 9.3125,15.8125 Q 9.75,15.75 10,15.5 10.25,15.25 10.5,15 10.75,14.75 11,14.5 11.25,14.25 11.625,14.125 12,14 12.375,13.875 12.75,13.75 12.75,13.5 12.75,13.25 12.5,13 12.25,12.75 12.125,12.375 L 12,12 12.375,11.875 q 0.375,-0.125 0.453125,-0.546875 l 0.07813,-0.421875 -0.04687,0.07813 -0.04687,0.07813 0.09375,-0.15625 Q 13,10.75 13,10.5 V 10.25 10.625 11 10.5 q 0,-0.5 0,-1 V 9 9.375 9.75 9.5 Q 13,9.25 12.875,9.125 L 12.75,9 12.8125,9.0625 12.875,9.125 13.3125,9.1875 Q 13.75,9.25 14,9.5 q 0.25,0.25 0.5,0.25 0.25,0 0.375,-0.375 Q 15,9 15,8.5 15,8 14.875,7.625 14.75,7.25 14.5,7 14.25,6.75 14.125,6.375 14,6 13.875,5.625 13.75,5.25 13.5,5 13.25,4.75 13,4.5 12.75,4.25 12.5,4 12.25,3.75 12.25,3.5 12.25,3.25 12.5,3 12.75,2.75 12.75,2.5 12.75,2.25 12.3125,2.0625 L 11.875,1.875 11.8125,1.9375 11.75,2 11.875,1.875 Q 12,1.75 12,1.5 V 1.25 1.625 2 L 11.875,1.625 Q 11.75,1.25 11.375,1.125 11,1 10.5,1 H 10 10.375 10.75 10.5 Q 10.25,1 10.09375,1.09375 L 9.9375,1.1875 10.015625,1.140625 10.09375,1.09375 9.671875,1.171875 Q 9.25,1.25 9,1.5 8.75,1.75 8.375,1.875 8,2 7.625,1.875 7.25,1.75 7,1.5 6.75,1.25 6.328125,1.171875 L 5.90625,1.09375 5.984375,1.140625 6.0625,1.1875 5.90625,1.09375 Q 5.75,1 5.5,1 H 5.25 5.625 6 5.5 Q 5,1 4.625,1.125 4.25,1.25 4.125,1.625 L 4,2 V 1.625 1.25 1.5 Q 4,1.75 4.125,1.875 L 4.25,2 4.1875,1.9375 4.125,1.875 3.6875,2.0625 Q 3.25,2.25 3.25,2.5 3.25,2.75 3.5,3 3.75,3.25 3.75,3.5 3.75,3.75 3.5,4 3.25,4.25 3,4.5 2.75,4.75 2.5,5 2.25,5.25 2.125,5.625 2,6 1.875,6.375 1.75,6.75 1.5,7 1.25,7.25 1.125,7.625 1,8 1,8.5 1,9 1.125,9.375 1.25,9.75 1.5,9.75 1.75,9.75 2,9.5 2.25,9.25 2.6875,9.1875 L 3.125,9.125 3.1875,9.0625 3.25,9 3.125,9.125 Q 3,9.25 3,9.5 V 9.75 9.375 9 9.5 q 0,0.5 0,1 V 11 10.625 10.25 10.5 q 0,0.25 0.09375,0.40625 L 3.1875,11.0625 3.140625,10.984375 3.09375,10.90625 3.171875,11.328125 Q 3.25,11.75 3.625,11.875 L 4,12 3.875,12.375 Q 3.75,12.75 3.5,13 q -0.25,0.25 -0.25,0.5 0,0.25 0.375,0.375 Q 4,14 4.375,14.125 4.75,14.25 5,14.5 5.25,14.75 5.5,15 5.75,15.25 6,15.5 6.25,15.75 6.6875,15.8125 L 7.125,15.875 7.0625,15.8125 7,15.75 7.125,15.875 Q 7.25,16 7.5,16 H 7.75 7.375 7 7.5 q 0.5,0 1,0 H 9 8.625 8.25 8.5 q 0.25,0 0.375,-0.125 L 9,15.75 8.9375,15.8125 M 10.25,18.5 q 0,0.25 0.25,0.25 0.25,0 0.25,-0.25 0,-0.25 -0.25,-0.25 -0.25,0 -0.25,0.25 M 13.5,17 q 0.5,0 0.875,-0.125 0.375,-0.125 0.5,-0.5 Q 15,16 15,15.5 15,15 14.875,14.625 14.75,14.25 14.375,14.125 L 14,14 h 0.375 0.375 -0.25 q -0.25,0 -0.40625,0.09375 l -0.15625,0.09375 0.07813,-0.04687 0.07813,-0.04687 -0.421875,0.07813 Q 13.25,14.25 13.125,14.625 L 13,15 12.625,15.125 q -0.375,0.125 -0.5,0.5 L 12,16 V 15.625 15.25 15.5 q 0,0.25 0.09375,0.40625 l 0.09375,0.15625 -0.04687,-0.07813 -0.04687,-0.07813 0.07813,0.421875 q 0.07813,0.421875 0.5,0.5 l 0.421875,0.07813 -0.07813,-0.04687 -0.07813,-0.04687 0.15625,0.09375 Q 13.25,17 13.5,17 H 13.75 13.375 13 13.5 M 12.71875,15.09375 13,15 13.09375,14.96875 13.1875,14.9375 13,15 q -0.1875,0.0625 -0.375,0.125 l -0.1875,0.0625 0.28125,-0.09375"
       id="path13"
       inkscape:connector-curvature="0" />
    <path
       style="fill:#000000;fill-opacity:0"
       d="M 12.125,0.375 12,0 H 12.5 13 13.5 14 14.5 15 15.5 16 V 0.5 1 1.5 2 2.5 3 3.5 4 4.5 5 5.5 6 6.5 7 L 15.625,6.875 Q 15.25,6.75 15.125,6.375 15,6 14.875,5.625 14.75,5.25 14.5,5 14.25,4.75 14.125,4.375 14,4 14,3.5 14,3 13.875,2.625 13.75,2.25 13.5,2 13.25,1.75 13,1.5 12.75,1.25 12.5,1 12.25,0.75 12.125,0.375"
       id="path15"
       inkscape:connector-curvature="0" />
    <path
       style="fill:#e9cf8c;fill-opacity:1"
       d="M 4.125,1.625 Q 4.25,1.25 4.625,1.125 5,1 5.5,1 6,1 6.125,1.375 6.25,1.75 6.5,2 6.75,2.25 6.875,2.625 7,3 6.5,3 6,3 5.875,2.625 5.75,2.25 5.375,2.125 5,2 4.5,2 4,2 4.125,1.625"
       id="path17"
       inkscape:connector-curvature="0" />
    <path
       style="fill:#ad35e1;fill-opacity:1"
       d="M 6.125,1.375 6,1 6.09375,1.28125 6.1875,1.5625 6.125,1.375 Q 6.0625,1.1875 5.90625,1.09375 L 5.75,1 5.828125,1.046875 5.90625,1.09375 6.328125,1.171875 Q 6.75,1.25 7,1.5 7.25,1.75 7.625,1.875 8,2 8.375,1.875 8.75,1.75 9,1.5 9.25,1.25 9.671875,1.171875 L 10.09375,1.09375 10.171875,1.046875 10.25,1 10.09375,1.09375 Q 9.9375,1.1875 9.875,1.375 L 9.8125,1.5625 9.90625,1.28125 10,1 9.875,1.375 Q 9.75,1.75 9.5,2 9.25,2.25 9.125,2.625 L 9,3 V 2.625 2.25 2.5 Q 9,2.75 9.125,2.875 L 9.25,3 9.1875,2.9375 9.125,2.875 8.9375,3.3125 Q 8.75,3.75 8.375,3.875 8,4 7.625,3.875 7.25,3.75 7.0625,3.3125 L 6.875,2.875 6.8125,2.9375 6.75,3 6.875,2.875 Q 7,2.75 7,2.5 V 2.25 2.625 3 L 6.875,2.625 Q 6.75,2.25 6.5,2 6.25,1.75 6.125,1.375"
       id="path19"
       inkscape:connector-curvature="0" />
    <path
       style="fill:#e9cf8c;fill-opacity:1"
       d="M 9.875,1.375 Q 10,1 10.5,1 11,1 11.375,1.125 11.75,1.25 11.875,1.625 12,2 11.5,2 11,2 10.625,2.125 10.25,2.25 10.125,2.625 10,3 9.5,3 9,3 9.125,2.625 9.25,2.25 9.5,2 9.75,1.75 9.875,1.375"
       id="path21"
       inkscape:connector-curvature="0" />
    <path
       style="fill:#ad35e1;fill-opacity:1"
       d="m 3.25,2.5 q 0,-0.25 0.4375,-0.4375 L 4.125,1.875 4.0625,1.8125 4,1.75 4.125,1.875 Q 4.25,2 4.5,2 H 4.75 4.375 4 4.5 Q 5,2 5.375,2.125 5.75,2.25 5.875,2.625 L 6,3 5.90625,2.71875 5.8125,2.4375 5.875,2.625 Q 5.9375,2.8125 6.09375,2.90625 L 6.25,3 6.171875,2.953125 6.09375,2.90625 6.171875,3.328125 Q 6.25,3.75 6.5,4 6.75,4.25 6.75,4.5 6.75,4.75 6.5,5 6.25,5.25 6.171875,5.671875 L 6.09375,6.09375 6.171875,6.046875 6.25,6 6.09375,6.09375 Q 5.9375,6.1875 5.875,6.375 L 5.8125,6.5625 5.90625,6.28125 6,6 5.875,6.375 Q 5.75,6.75 5.375,6.875 L 5,7 5.28125,6.90625 5.5625,6.8125 5.375,6.875 Q 5.1875,6.9375 5.09375,7.09375 L 5,7.25 5.046875,7.171875 5.09375,7.09375 4.921875,6.671875 Q 4.75,6.25 4.328125,6.078125 L 3.90625,5.90625 3.828125,5.953125 3.75,6 3.90625,5.90625 Q 4.0625,5.8125 4.125,5.625 L 4.1875,5.4375 4.09375,5.71875 4,6 4.125,5.625 Q 4.25,5.25 4.625,5.125 5,5 5.375,4.875 5.75,4.75 5.75,4.5 5.75,4.25 5.375,4.125 5,4 4.625,4.125 4.25,4.25 4,4.5 3.75,4.75 3.5,5 3.25,5.25 3.125,5.625 L 3,6 V 5.625 5.25 5.5 Q 3,5.75 3.125,5.875 L 3.25,6 3.1875,5.9375 3.125,5.875 2.9375,6.3125 Q 2.75,6.75 2.5,7 2.25,7.25 2.25,7.5 2.25,7.75 2.625,7.875 3,8 3.375,8.125 3.75,8.25 3.8125,8.6875 L 3.875,9.125 3.9375,9.1875 4,9.25 3.875,9.125 Q 3.75,9 3.5,9 H 3.25 3.625 4 3.5 3 3.375 3.75 3.5 Q 3.25,9 3.125,9.125 L 3,9.25 3.0625,9.1875 3.125,9.125 2.6875,9.1875 Q 2.25,9.25 2,9.5 1.75,9.75 1.5,9.75 1.25,9.75 1.125,9.375 1,9 1,8.5 1,8 1.125,7.625 1.25,7.25 1.5,7 1.75,6.75 1.875,6.375 2,6 2.125,5.625 2.25,5.25 2.5,5 2.75,4.75 3,4.5 3.25,4.25 3.5,4 3.75,3.75 3.75,3.5 3.75,3.25 3.5,3 3.25,2.75 3.25,2.5"
       id="path23"
       inkscape:connector-curvature="0" />
    <path
       style="fill:#ad35e1;fill-opacity:1"
       d="M 10.125,2.625 Q 10.25,2.25 10.625,2.125 11,2 11.5,2 H 12 11.625 11.25 11.5 q 0.25,0 0.375,-0.125 L 12,1.75 11.9375,1.8125 11.875,1.875 12.3125,2.0625 Q 12.75,2.25 12.75,2.5 q 0,0.25 -0.25,0.5 -0.25,0.25 -0.25,0.5 0,0.25 0.25,0.5 0.25,0.25 0.5,0.5 0.25,0.25 0.5,0.5 0.25,0.25 0.375,0.625 Q 14,6 14.125,6.375 14.25,6.75 14.5,7 14.75,7.25 14.875,7.625 15,8 15,8.5 15,9 14.875,9.375 14.75,9.75 14.5,9.75 14.25,9.75 14,9.5 13.75,9.25 13.3125,9.1875 L 12.875,9.125 12.9375,9.1875 13,9.25 12.875,9.125 Q 12.75,9 12.5,9 H 12.25 12.625 13 12.5 12 12.375 12.75 12.5 Q 12.25,9 12.125,9.125 L 12,9.25 12.0625,9.1875 12.125,9.125 12.1875,8.6875 Q 12.25,8.25 12.625,8.125 13,8 13.375,7.875 13.75,7.75 13.75,7.5 13.75,7.25 13.5,7 13.25,6.75 13.0625,6.3125 L 12.875,5.875 12.8125,5.9375 12.75,6 12.875,5.875 Q 13,5.75 13,5.5 V 5.25 5.625 6 L 12.875,5.625 Q 12.75,5.25 12.5,5 12.25,4.75 12,4.5 11.75,4.25 11.375,4.125 11,4 10.625,4.125 10.25,4.25 10.25,4.5 q 0,0.25 0.375,0.375 0.375,0.125 0.75,0.25 0.375,0.125 0.5,0.5 L 12,6 11.90625,5.71875 11.8125,5.4375 11.875,5.625 q 0.0625,0.1875 0.21875,0.28125 L 12.25,6 12.171875,5.953125 12.09375,5.90625 11.671875,6.078125 Q 11.25,6.25 11.078125,6.671875 L 10.90625,7.09375 10.953125,7.171875 11,7.25 10.90625,7.09375 Q 10.8125,6.9375 10.625,6.875 L 10.4375,6.8125 10.71875,6.90625 11,7 10.625,6.875 Q 10.25,6.75 10.125,6.375 L 10,6 10.09375,6.28125 10.1875,6.5625 10.125,6.375 Q 10.0625,6.1875 9.90625,6.09375 L 9.75,6 9.828125,6.046875 9.90625,6.09375 9.828125,5.671875 Q 9.75,5.25 9.5,5 9.25,4.75 9.25,4.5 9.25,4.25 9.5,4 9.75,3.75 9.828125,3.328125 L 9.90625,2.90625 9.828125,2.953125 9.75,3 9.90625,2.90625 Q 10.0625,2.8125 10.125,2.625 L 10.1875,2.4375 10.09375,2.71875 10,3 10.125,2.625"
       id="path25"
       inkscape:connector-curvature="0" />
    <path
       style="fill:#3e3250;fill-opacity:1"
       d="M 6.171875,3.328125 6.09375,2.90625 6.015625,2.859375 5.9375,2.8125 6.09375,2.90625 Q 6.25,3 6.5,3 H 6.75 6.375 6 6.5 7 6.625 6.25 6.5 Q 6.75,3 6.875,2.875 L 7,2.75 6.9375,2.8125 6.875,2.875 7.0625,3.3125 Q 7.25,3.75 7.625,3.875 8,4 8.375,3.875 8.75,3.75 8.9375,3.3125 L 9.125,2.875 9.0625,2.8125 9,2.75 9.125,2.875 Q 9.25,3 9.5,3 H 9.75 9.375 9 9.5 10 9.625 9.25 9.5 Q 9.75,3 9.90625,2.90625 L 10.0625,2.8125 9.984375,2.859375 9.90625,2.90625 9.828125,3.328125 Q 9.75,3.75 9.5,4 9.25,4.25 9.25,4.5 9.25,4.75 9.5,5 9.75,5.25 9.828125,5.671875 L 9.90625,6.09375 9.984375,6.140625 10.0625,6.1875 9.90625,6.09375 Q 9.75,6 9.5,6 H 9.25 9.625 10 9.5 Q 9,6 8.5,6 8,6 7.5,6 7,6 6.5,6 H 6 6.375 6.75 6.5 Q 6.25,6 6.09375,6.09375 L 5.9375,6.1875 6.015625,6.140625 6.09375,6.09375 6.171875,5.671875 Q 6.25,5.25 6.5,5 6.75,4.75 6.75,4.5 6.75,4.25 6.5,4 6.25,3.75 6.171875,3.328125"
       id="path27"
       inkscape:connector-curvature="0" />
    <path
       style="fill:#e9cf8c;fill-opacity:1"
       d="M 4,4.5 Q 4.25,4.25 4.625,4.125 5,4 5.375,4.125 5.75,4.25 5.75,4.5 5.75,4.75 5.375,4.875 5,5 4.625,5.125 4.25,5.25 4.125,5.625 4,6 3.5,6 3,6 3.125,5.625 3.25,5.25 3.5,5 3.75,4.75 4,4.5"
       id="path29"
       inkscape:connector-curvature="0" />
    <path
       style="fill:#e9cf8c;fill-opacity:1"
       d="m 10.25,4.5 q 0,-0.25 0.375,-0.375 Q 11,4 11.375,4.125 11.75,4.25 12,4.5 12.25,4.75 12.5,5 12.75,5.25 12.875,5.625 13,6 12.5,6 12,6 11.875,5.625 11.75,5.25 11.375,5.125 11,5 10.625,4.875 10.25,4.75 10.25,4.5"
       id="path31"
       inkscape:connector-curvature="0" />
    <path
       style="fill:#3e3250;fill-opacity:1"
       d="M 2.9375,6.3125 3.125,5.875 3.0625,5.8125 3,5.75 3.125,5.875 Q 3.25,6 3.5,6 H 3.75 3.375 3 3.5 4 3.625 3.25 3.5 Q 3.75,6 3.90625,5.90625 L 4.0625,5.8125 3.984375,5.859375 3.90625,5.90625 4.328125,6.078125 Q 4.75,6.25 4.921875,6.671875 L 5.09375,7.09375 5.140625,7.015625 5.1875,6.9375 5.09375,7.09375 Q 5,7.25 5,7.5 V 7.75 7.375 7 7.5 8 7.625 7.25 7.5 Q 5,7.75 5.125,7.875 L 5.25,8 5.1875,7.9375 5.125,7.875 V 8.5 9.125 L 5.1875,9.0625 5.25,9 5.125,9.125 Q 5,9.25 5,9.5 V 9.75 9.375 9 9.5 10 9.625 9.25 9.5 Q 5,9.75 5.09375,9.90625 L 5.1875,10.0625 5.140625,9.984375 5.09375,9.90625 4.5625,9.9375 4.03125,9.96875 4.046875,10.078125 4.0625,10.1875 4.03125,9.96875 Q 4,9.75 4,9.5 V 9.25 9.625 10 9.5 9 9.375 9.75 9.5 Q 4,9.25 3.875,9.125 L 3.75,9 3.8125,9.0625 3.875,9.125 3.8125,8.6875 Q 3.75,8.25 3.375,8.125 3,8 2.625,7.875 2.25,7.75 2.25,7.5 2.25,7.25 2.5,7 2.75,6.75 2.9375,6.3125"
       id="path33"
       inkscape:connector-curvature="0" />
    <path
       style="fill:#e9cf8c;fill-opacity:1"
       d="M 5.875,6.375 Q 6,6 6.5,6 7,6 7.5,6 8,6 8.5,6 9,6 9.5,6 10,6 10.125,6.375 10.25,6.75 10.625,6.875 11,7 11,7.5 11,8 10.5,8 10,8 9.625,8.125 9.25,8.25 9.125,8.625 9,9 9.125,9.375 9.25,9.75 9.5,9.75 9.75,9.75 9.875,9.375 10,9 10.5,9 11,9 11,9.5 q 0,0.5 -0.375,0.625 -0.375,0.125 -0.5,0.5 Q 10,11 9.5,11 9,11 8.5,11 8,11 7.5,11 7,11 6.5,11 6,11 5.875,10.625 5.75,10.25 5.375,10.125 5,10 5,9.5 5,9 5.5,9 6,9 6.125,9.375 6.25,9.75 6.5,9.75 6.75,9.75 6.875,9.375 7,9 6.875,8.625 6.75,8.25 6.375,8.125 6,8 5.5,8 5,8 5,7.5 5,7 5.375,6.875 5.75,6.75 5.875,6.375"
       id="path35"
       inkscape:connector-curvature="0" />
    <path
       style="fill:#3e3250;fill-opacity:1"
       d="M 11.078125,6.671875 Q 11.25,6.25 11.671875,6.078125 L 12.09375,5.90625 12.015625,5.859375 11.9375,5.8125 12.09375,5.90625 Q 12.25,6 12.5,6 H 12.75 12.375 12 12.5 13 12.625 12.25 12.5 q 0.25,0 0.375,-0.125 L 13,5.75 12.9375,5.8125 12.875,5.875 13.0625,6.3125 Q 13.25,6.75 13.5,7 q 0.25,0.25 0.25,0.5 0,0.25 -0.375,0.375 Q 13,8 12.625,8.125 12.25,8.25 12.1875,8.6875 L 12.125,9.125 12.1875,9.0625 12.25,9 12.125,9.125 Q 12,9.25 12,9.5 V 9.75 9.375 9 9.5 10 9.625 9.25 9.5 q 0,0.25 -0.03125,0.46875 L 11.9375,10.1875 11.953125,10.078125 11.96875,9.96875 11.4375,9.9375 10.90625,9.90625 10.859375,9.984375 10.8125,10.0625 10.90625,9.90625 Q 11,9.75 11,9.5 V 9.25 9.625 10 9.5 9 9.375 9.75 9.5 Q 11,9.25 10.875,9.125 L 10.75,9 10.8125,9.0625 10.875,9.125 V 8.5 7.875 L 10.8125,7.9375 10.75,8 10.875,7.875 Q 11,7.75 11,7.5 V 7.25 7.625 8 7.5 7 7.375 7.75 7.5 Q 11,7.25 10.90625,7.09375 L 10.8125,6.9375 10.85937,7.015625 10.90624,7.09375 11.078115,6.671875"
       id="path37"
       inkscape:connector-curvature="0" />
    <path
       style="fill:#ad35e1;fill-opacity:1"
       d="M 5.125,8.5 V 7.875 L 5.0625,7.8125 5,7.75 5.125,7.875 Q 5.25,8 5.5,8 H 5.75 5.375 5 5.5 6 5.625 5.25 5.5 Q 5.75,8 5.96875,8.03125 L 6.1875,8.0625 6.078125,8.046875 5.96875,8.03125 5.9375,8.5625 5.90625,9.09375 5.984375,9.140625 6.0625,9.1875 5.90625,9.09375 Q 5.75,9 5.5,9 H 5.25 5.625 6 5.5 5 5.375 5.75 5.5 Q 5.25,9 5.125,9.125 L 5,9.25 5.0625,9.1875 5.125,9.125 V 8.5"
       id="path39"
       inkscape:connector-curvature="0" />
    <path
       style="fill:#3e3250;fill-opacity:1"
       d="M 5.9375,8.5625 5.96875,8.03125 5.859375,8.015625 5.75,8 5.96875,8.03125 Q 6.1875,8.0625 6.375,8.125 L 6.5625,8.1875 6.28125,8.09375 6,8 6.375,8.125 Q 6.75,8.25 6.875,8.625 7,9 6.875,9.375 6.75,9.75 6.5,9.75 6.25,9.75 6.125,9.375 L 6,9 6.09375,9.28125 6.1875,9.5625 6.125,9.375 Q 6.0625,9.1875 5.90625,9.09375 L 5.75,9 5.828125,9.046875 5.90625,9.09375 5.9375,8.5625"
       id="path41"
       inkscape:connector-curvature="0" />
    <path
       style="fill:#3e3250;fill-opacity:1"
       d="M 9.125,8.625 Q 9.25,8.25 9.625,8.125 L 10,8 9.71875,8.09375 9.4375,8.1875 9.625,8.125 Q 9.8125,8.0625 10.03125,8.03125 L 10.25,8 10.140625,8.015625 10.03125,8.03125 10.0625,8.5625 10.09375,9.09375 10.171875,9.046875 10.25,9 10.09375,9.09375 Q 9.9375,9.1875 9.875,9.375 L 9.8125,9.5625 9.90625,9.28125 10,9 9.875,9.375 Q 9.75,9.75 9.5,9.75 9.25,9.75 9.125,9.375 9,9 9.125,8.625"
       id="path43"
       inkscape:connector-curvature="0" />
    <path
       style="fill:#ad35e1;fill-opacity:1"
       d="M 10.0625,8.5625 10.03125,8.03125 9.921875,8.046875 9.8125,8.0625 10.03125,8.03125 Q 10.25,8 10.5,8 H 10.75 10.375 10 10.5 11 10.625 10.25 10.5 q 0.25,0 0.375,-0.125 L 11,7.75 10.9375,7.8125 10.875,7.875 V 8.5 9.125 L 10.9375,9.1875 11,9.25 10.875,9.125 Q 10.75,9 10.5,9 H 10.25 10.625 11 10.5 10 10.375 10.75 10.5 Q 10.25,9 10.09375,9.09375 L 9.9375,9.1875 10.015625,9.140625 10.09375,9.09375 10.0625,8.5625"
       id="path45"
       inkscape:connector-curvature="0" />
    <path
       style="fill:#e9cf8c;fill-opacity:1"
       d="M 3,9.5 Q 3,9 3.5,9 4,9 4,9.5 4,10 4.125,10.375 4.25,10.75 4.625,10.875 5,11 5,11.5 V 12 H 4.5 4 L 3.875,11.625 Q 3.75,11.25 3.375,11.125 3,11 3,10.5 3,10 3,9.5 m 2,2.625 V 12 11.625 11.25 11.5 q 0,0.25 0,0.5 v 0.25 -0.125"
       id="path47"
       inkscape:connector-curvature="0" />
    <path
       style="fill:#e9cf8c;fill-opacity:1"
       d="M 12,9.5 Q 12,9 12.5,9 13,9 13,9.5 q 0,0.5 0,1 0,0.5 -0.375,0.625 -0.375,0.125 -0.5,0.5 L 12,12 H 11.5 11 v -0.5 q 0,-0.5 0.375,-0.625 0.375,-0.125 0.5,-0.5 Q 12,10 12,9.5 m -1,2.125 V 12 12.125 12.25 12 q 0,-0.25 0,-0.5 v -0.25 0.375"
       id="path49"
       inkscape:connector-curvature="0" />
    <path
       style="fill:#000000;fill-opacity:0"
       d="M 0,10.5 V 10 l 0.375,0.125 Q 0.75,10.25 1,10.5 1.25,10.75 1.5,11 1.75,11.25 1.875,11.625 2,12 1.875,12.375 1.75,12.75 1.5,13 1.25,13.25 1,13.5 0.75,13.75 0.375,13.875 L 0,14 V 13.5 13 12.5 12 11.5 11 10.5"
       id="path51"
       inkscape:connector-curvature="0" />
    <path
       style="fill:#ad35e1;fill-opacity:1"
       d="M 4.125,10.375 4,10 4.09375,10.28125 4.1875,10.5625 4.125,10.375 Q 4.0625,10.1875 4.03125,9.96875 L 4,9.75 4.015625,9.859375 4.03125,9.96875 4.5625,9.9375 5.09375,9.90625 5.046875,9.828125 5,9.75 5.09375,9.90625 Q 5.1875,10.0625 5.375,10.125 L 5.5625,10.1875 5.28125,10.09375 5,10 5.375,10.125 q 0.375,0.125 0.5,0.5 L 6,11 5.90625,10.71875 5.8125,10.4375 5.875,10.625 q 0.0625,0.1875 0.21875,0.28125 L 6.25,11 6.171875,10.953125 6.09375,10.90625 5.5,11 4.90625,11.09375 4.953125,11.171875 5,11.25 4.90625,11.09375 Q 4.8125,10.9375 4.625,10.875 L 4.4375,10.8125 4.71875,10.90625 5,11 4.625,10.875 q -0.375,-0.125 -0.5,-0.5"
       id="path53"
       inkscape:connector-curvature="0" />
    <path
       style="fill:#ad35e1;fill-opacity:1"
       d="m 10.125,10.625 q 0.125,-0.375 0.5,-0.5 L 11,10 10.71875,10.09375 10.4375,10.1875 10.625,10.125 q 0.1875,-0.0625 0.28125,-0.21875 L 11,9.75 10.953125,9.828125 10.90625,9.90625 11.4375,9.9375 11.96875,9.96875 11.984375,9.859375 12,9.75 11.96875,9.96875 Q 11.9375,10.1875 11.875,10.375 L 11.8125,10.5625 11.90625,10.28125 12,10 11.875,10.375 q -0.125,0.375 -0.5,0.5 L 11,11 11.28125,10.90625 11.5625,10.8125 11.375,10.875 q -0.1875,0.0625 -0.28125,0.21875 L 11,11.25 11.046875,11.171875 11.09375,11.09375 10.5,11 9.90625,10.90625 9.828125,10.953125 9.75,11 9.90625,10.90625 Q 10.0625,10.8125 10.125,10.625 L 10.1875,10.4375 10.09375,10.71875 10,11 10.125,10.625"
       id="path55"
       inkscape:connector-curvature="0" />
    <path
       style="fill:#000000;fill-opacity:0"
       d="m 15,10.5 q 0.25,-0.25 0.625,-0.375 L 16,10 V 10.5 11 11.5 12 12.5 13 13.5 14 L 15.625,13.875 Q 15.25,13.75 15,13.5 14.75,13.25 14.5,13 14.25,12.75 14.125,12.375 14,12 14.125,11.625 14.25,11.25 14.5,11 14.75,10.75 15,10.5"
       id="path57"
       inkscape:connector-curvature="0" />
    <path
       style="fill:#ad35e1;fill-opacity:1"
       d="M 3.171875,11.328125 3.09375,10.90625 3.046875,10.828125 3,10.75 3.09375,10.90625 Q 3.1875,11.0625 3.375,11.125 L 3.5625,11.1875 3.28125,11.09375 3,11 3.375,11.125 q 0.375,0.125 0.5,0.5 L 4,12 3.625,11.875 Q 3.25,11.75 3.171875,11.328125"
       id="path59"
       inkscape:connector-curvature="0" />
    <path
       style="fill:#3e3250;fill-opacity:1"
       d="M 5,11.5 V 11 11.375 11.75 11.5 Q 5,11.25 4.90625,11.09375 L 4.8125,10.9375 4.859375,11.015625 4.90625,11.09375 5.5,11 6.09375,10.90625 6.015625,10.859375 5.9375,10.8125 6.09375,10.90625 Q 6.25,11 6.5,11 H 6.75 6.375 6 6.5 q 0.5,0 1,0 0.5,0 1,0 0.5,0 1,0 H 10 9.625 9.25 9.5 q 0.25,0 0.40625,-0.09375 L 10.0625,10.8125 9.984375,10.859375 9.90625,10.90625 10.5,11 l 0.59375,0.09375 0.04687,-0.07813 0.04687,-0.07813 -0.09375,0.15625 Q 11,11.25 11,11.5 V 11.75 11.375 11 11.5 q 0,0.5 0,1 0,0.5 -0.125,0.875 Q 10.75,13.75 10.5,14 10.25,14.25 10,14.5 9.75,14.75 9.3125,14.9375 L 8.875,15.125 8.9375,15.1875 9,15.25 8.875,15.125 Q 8.75,15 8.5,15 H 8.25 8.625 9 8.5 Q 8,15 7.5,15 H 7 7.375 7.75 7.5 Q 7.25,15 7.125,15.125 L 7,15.25 7.0625,15.1875 7.125,15.125 6.6875,14.9375 Q 6.25,14.75 6,14.5 5.75,14.25 5.5,14 5.25,13.75 5.125,13.375 5,13 5,12.5 5,12 5,11.5 M 8.5,14 Q 9,14 9.375,13.875 9.75,13.75 9.875,13.375 10,13 9.875,12.625 9.75,12.25 9.375,12.125 9,12 8.5,12 8,12 7.5,12 7,12 6.625,12.125 6.25,12.25 6.125,12.625 6,13 6.125,13.375 6.25,13.75 6.625,13.875 7,14 7.5,14 q 0.5,0 1,0"
       id="path61"
       inkscape:connector-curvature="0" />
    <path
       style="fill:#ad35e1;fill-opacity:1"
       d="m 12.125,11.625 q 0.125,-0.375 0.5,-0.5 L 13,11 12.71875,11.09375 12.4375,11.1875 12.625,11.125 q 0.1875,-0.0625 0.28125,-0.21875 L 13,10.75 l -0.04687,0.07813 -0.04687,0.07813 -0.07813,0.421875 Q 12.75,11.75 12.375,11.875 L 12,12 12.125,11.625"
       id="path63"
       inkscape:connector-curvature="0" />
    <path
       style="fill:#18b856;fill-opacity:1"
       d="M 3.875,12.375 4,12 H 4.5 5 V 12.5 13 12.625 12.25 12.5 q 0,0.25 0.03125,0.46875 L 5.0625,13.1875 5.046875,13.078125 5.03125,12.96875 4.640625,13.109375 Q 4.25,13.25 4.125,13.625 L 4,14 3.625,13.875 Q 3.25,13.75 3.25,13.5 3.25,13.25 3.5,13 3.75,12.75 3.875,12.375 M 3.71875,13.90625 4,14 4.09375,14.03125 4.1875,14.0625 4,14 Q 3.8125,13.9375 3.625,13.875 L 3.4375,13.8125 3.71875,13.90625 M 5,12.375 V 12 11.875 11.75 12 q 0,0.25 0,0.5 v 0.25 -0.375"
       id="path65"
       inkscape:connector-curvature="0" />
    <path
       style="fill:#ad35e1;fill-opacity:1"
       d="m 6.125,12.625 q 0.125,-0.375 0.5,-0.5 L 7,12 6.71875,12.09375 6.4375,12.1875 6.625,12.125 Q 6.8125,12.0625 7.03125,12.03125 L 7.25,12 7.140625,12.015625 7.03125,12.03125 6.890625,12.390625 Q 6.75,12.75 6.40625,12.875 L 6.0625,13 V 13.09375 13.1875 13 q 0,-0.1875 0.0625,-0.375 L 6.1875,12.4375 6.09375,12.71875 6,13 6.125,12.625"
       id="path67"
       inkscape:connector-curvature="0" />
    <path
       style="fill:#18b856;fill-opacity:1"
       d="M 6.890625,12.390625 7.03125,12.03125 6.921875,12.046875 6.8125,12.0625 7.03125,12.03125 Q 7.25,12 7.5,12 H 7.75 7.375 7 7.5 q 0.5,0 1,0 H 9 8.625 8.25 8.5 q 0.25,0 0.46875,0.03125 L 9.1875,12.0625 9.078125,12.046875 8.96875,12.03125 9.109375,12.390625 Q 9.25,12.75 9.59375,12.875 L 9.9375,13 V 12.90625 12.8125 13 q 0,0.1875 -0.0625,0.375 L 9.8125,13.5625 9.90625,13.28125 10,13 9.875,13.375 Q 9.75,13.75 9.375,13.875 9,14 8.5,14 8,14 7.5,14 7,14 6.625,13.875 6.25,13.75 6.125,13.375 L 6,13 6.09375,13.28125 6.1875,13.5625 6.125,13.375 Q 6.0625,13.1875 6.0625,13 V 12.8125 12.90625 13 L 6.40625,12.875 Q 6.75,12.75 6.890625,12.390625"
       id="path69"
       inkscape:connector-curvature="0" />
    <path
       style="fill:#ad35e1;fill-opacity:1"
       d="M 9.109375,12.390625 8.96875,12.03125 8.859375,12.015625 8.75,12 8.96875,12.03125 Q 9.1875,12.0625 9.375,12.125 L 9.5625,12.1875 9.28125,12.09375 9,12 9.375,12.125 q 0.375,0.125 0.5,0.5 L 10,13 9.90625,12.71875 9.8125,12.4375 9.875,12.625 Q 9.9375,12.8125 9.9375,13 V 13.1875 13.09375 13 L 9.59375,12.875 Q 9.25,12.75 9.109375,12.390625"
       id="path71"
       inkscape:connector-curvature="0" />
    <path
       style="fill:#18b856;fill-opacity:1"
       d="M 11,12.5 V 12 h 0.5 0.5 l 0.125,0.375 Q 12.25,12.75 12.5,13 q 0.25,0.25 0.25,0.5 0,0.25 -0.375,0.375 L 12,14 11.875,13.625 Q 11.75,13.25 11.359375,13.109375 L 10.96875,12.96875 10.953125,13.078125 10.9375,13.1875 10.96875,12.96875 Q 11,12.75 11,12.5 V 12.25 12.625 13 12.5 M 11.90625,14.03125 12,14 12.28125,13.90625 12.5625,13.8125 12.375,13.875 Q 12.1875,13.9375 12,14 l -0.1875,0.0625 0.09375,-0.03125 M 11,11.875 V 12 12.375 12.75 12.5 q 0,-0.25 0,-0.5 v -0.25 0.125"
       id="path73"
       inkscape:connector-curvature="0" />
    <path
       style="fill:#ad35e1;fill-opacity:1"
       d="M 4.125,13.625 Q 4.25,13.25 4.640625,13.109375 L 5.03125,12.96875 5.015625,12.859375 5,12.75 5.03125,12.96875 Q 5.0625,13.1875 5.125,13.375 L 5.1875,13.5625 5.09375,13.28125 5,13 5.125,13.375 Q 5.25,13.75 5.5,14 5.75,14.25 6,14.5 6.25,14.75 6.6875,14.9375 L 7.125,15.125 7.1875,15.0625 7.25,15 7.125,15.125 Q 7,15.25 7,15.5 V 15.75 15.375 15 15.5 16 15.625 15.25 15.5 q 0,0.25 0.125,0.375 L 7.25,16 7.1875,15.9375 7.125,15.875 6.6875,15.8125 Q 6.25,15.75 6,15.5 5.75,15.25 5.5,15 5.25,14.75 5,14.5 4.75,14.25 4.375,14.125 L 4,14 4.125,13.625 M 3.90625,13.96875 4,14 4.28125,14.09375 4.5625,14.1875 4.375,14.125 Q 4.1875,14.0625 4,14 l -0.1875,-0.0625 0.09375,0.03125"
       id="path75"
       inkscape:connector-curvature="0" />
    <path
       style="fill:#ad35e1;fill-opacity:1"
       d="M 10.875,13.375 11,13 10.90625,13.28125 10.8125,13.5625 10.875,13.375 q 0.0625,-0.1875 0.09375,-0.40625 L 11,12.75 l -0.01563,0.109375 -0.01563,0.109375 0.390625,0.140625 Q 11.75,13.25 11.875,13.625 L 12,14 11.625,14.125 Q 11.25,14.25 11,14.5 10.75,14.75 10.5,15 10.25,15.25 10,15.5 9.75,15.75 9.3125,15.8125 L 8.875,15.875 8.8125,15.9375 8.75,16 8.875,15.875 Q 9,15.75 9,15.5 V 15.25 15.625 16 15.5 15 15.375 15.75 15.5 Q 9,15.25 8.875,15.125 L 8.75,15 8.8125,15.0625 8.875,15.125 9.3125,14.9375 Q 9.75,14.75 10,14.5 10.25,14.25 10.5,14 10.75,13.75 10.875,13.375 M 11.71875,14.09375 12,14 12.09375,13.96875 12.1875,13.9375 12,14 q -0.1875,0.0625 -0.375,0.125 l -0.1875,0.0625 0.28125,-0.09375"
       id="path77"
       inkscape:connector-curvature="0" />
    <path
       style="fill:#e9cf8c;fill-opacity:1"
       d="M 1.125,14.625 Q 1.25,14.25 1.625,14.125 2,14 2.125,14.375 2.25,14.75 2.625,14.875 3,15 3.375,15.125 3.75,15.25 3.875,15.625 4,16 3.625,16.125 3.25,16.25 3.125,16.625 3,17 2.5,17 2,17 1.625,16.875 1.25,16.75 1.125,16.375 1,16 1,15.5 1,15 1.125,14.625"
       id="path79"
       inkscape:connector-curvature="0" />
    <path
       style="fill:#ad35e1;fill-opacity:1"
       d="M 2.125,14.375 2,14 2.09375,14.28125 2.1875,14.5625 2.125,14.375 Q 2.0625,14.1875 1.90625,14.09375 L 1.75,14 1.828125,14.04687 1.90625,14.09374 2.328125,14.17187 Q 2.75,14.25 2.875,14.625 L 3,15 2.625,14.875 Q 2.25,14.75 2.125,14.375 M 2.71875,14.90625 3,15 3.09375,15.03125 3.1875,15.0625 3,15 Q 2.8125,14.9375 2.625,14.875 l -0.1875,-0.0625 0.28125,0.09375"
       id="path81"
       inkscape:connector-curvature="0" />
    <path
       style="fill:#ad35e1;fill-opacity:1"
       d="m 13.125,14.625 q 0.125,-0.375 0.546875,-0.453125 l 0.421875,-0.07813 0.07813,-0.04687 L 14.25,14 14.09375,14.09375 Q 13.9375,14.1875 13.875,14.375 L 13.8125,14.5625 13.90625,14.28125 14,14 13.875,14.375 q -0.125,0.375 -0.5,0.5 L 13,15 13.125,14.625 M 12.90625,15.03125 13,15 13.28125,14.90625 13.5625,14.8125 13.375,14.875 Q 13.1875,14.9375 13,15 l -0.1875,0.0625 0.09375,-0.03125"
       id="path83"
       inkscape:connector-curvature="0" />
    <path
       style="fill:#e9cf8c;fill-opacity:1"
       d="M 13.875,14.375 Q 14,14 14.375,14.125 q 0.375,0.125 0.5,0.5 Q 15,15 15,15.5 q 0,0.5 -0.125,0.875 -0.125,0.375 -0.5,0.5 Q 14,17 13.5,17 13,17 12.875,16.625 12.75,16.25 12.375,16.125 12,16 12.125,15.625 q 0.125,-0.375 0.5,-0.5 0.375,-0.125 0.75,-0.25 0.375,-0.125 0.5,-0.5"
       id="path85"
       inkscape:connector-curvature="0" />
    <path
       style="fill:#e9cf8c;fill-opacity:1"
       d="M 7,15.5 Q 7,15 7.5,15 8,15 8.5,15 9,15 9,15.5 9,16 8.5,16 8,16 7.5,16 7,16 7,15.5"
       id="path87"
       inkscape:connector-curvature="0" />
    <path
       style="fill:#ad35e1;fill-opacity:1"
       d="m 3.125,16.625 q 0.125,-0.375 0.5,-0.5 L 4,16 3.71875,16.09375 3.4375,16.1875 3.625,16.125 Q 3.8125,16.0625 3.90625,15.90625 L 4,15.75 3.953125,15.828125 3.90625,15.90625 3.828125,16.328125 q -0.078125,0.421875 -0.5,0.5 L 2.90625,16.90625 2.828125,16.953125 2.75,17 2.90625,16.90625 Q 3.0625,16.8125 3.125,16.625 L 3.1875,16.4375 3.09375,16.71875 3,17 3.125,16.625"
       id="path89"
       inkscape:connector-curvature="0" />
    <path
       style="fill:#18b856;fill-opacity:1"
       d="m 5.25,16.5 q 0,-0.25 0.25,-0.25 0.25,0 0.5,0.25 0.25,0.25 0.625,0.375 Q 7,17 7.5,17 8,17 8.5,17 9,17 9.375,16.875 9.75,16.75 10,16.5 q 0.25,-0.25 0.5,-0.25 0.25,0 0.25,0.25 0,0.25 -0.25,0.5 Q 10.25,17.25 10,17.5 9.75,17.75 9.375,17.875 9,18 8.5,18 8,18 7.5,18 7,18 6.625,17.875 6.25,17.75 6,17.5 5.75,17.25 5.5,17 5.25,16.75 5.25,16.5"
       id="path91"
       inkscape:connector-curvature="0" />
    <path
       style="fill:#ad35e1;fill-opacity:1"
       d="M 12.171875,16.328125 12.09375,15.90625 12.046875,15.828125 12,15.75 12.09375,15.90625 Q 12.1875,16.0625 12.375,16.125 L 12.5625,16.1875 12.28125,16.09375 12,16 l 0.375,0.125 q 0.375,0.125 0.5,0.5 L 13,17 12.90625,16.71875 12.8125,16.4375 12.875,16.625 q 0.0625,0.1875 0.21875,0.28125 L 13.25,17 13.17187,16.95313 13.09374,16.90626 12.671865,16.82813 q -0.421875,-0.07813 -0.5,-0.5"
       id="path93"
       inkscape:connector-curvature="0" />
    <path
       style="fill:#000000;fill-opacity:0"
       d="M 0,17.5 V 17 l 0.375,0.125 Q 0.75,17.25 1,17.5 1.25,17.75 1.625,17.875 2,18 2.5,18 3,18 3.375,18.125 3.75,18.25 3.875,18.625 4,19 3.875,19.375 3.75,19.75 3.5,20 3.25,20.25 3.125,20.625 L 3,21 H 2.5 2 1.5 1 0.5 0 V 20.5 20 19.5 19 18.5 18 17.5"
       id="path95"
       inkscape:connector-curvature="0" />
    <path
       style="fill:#000000;fill-opacity:0"
       d="m 15,17.5 q 0.25,-0.25 0.625,-0.375 L 16,17 V 17.5 18 18.5 19 19.5 20 20.5 21 H 15.5 15 14.5 14 13.5 13 L 12.875,20.625 Q 12.75,20.25 12.5,20 12.25,19.75 12.125,19.375 12,19 12.125,18.625 12.25,18.25 12.625,18.125 13,18 13.5,18 14,18 14.375,17.875 14.75,17.75 15,17.5"
       id="path97"
       inkscape:connector-curvature="0" />
    <path
       style="fill:#ad35e1;fill-opacity:1"
       d="m 5.25,18.5 q 0,-0.25 0.25,-0.25 0.25,0 0.25,0.25 0,0.25 -0.25,0.25 -0.25,0 -0.25,-0.25"
       id="path99"
       inkscape:connector-curvature="0" />
    <path
       style="fill:#ad35e1;fill-opacity:1"
       d="m 10.25,18.5 q 0,-0.25 0.25,-0.25 0.25,0 0.25,0.25 0,0.25 -0.25,0.25 -0.25,0 -0.25,-0.25"
       id="path101"
       inkscape:connector-curvature="0" />
    <path
       style="fill:#000000;fill-opacity:0"
       d="m 7.125,19.625 q 0.125,-0.375 0.5,-0.5 0.375,-0.125 0.75,0 0.375,0.125 0.5,0.5 Q 9,20 9,20.5 V 21 H 8.5 8 7.5 7 V 20.5 Q 7,20 7.125,19.625"
       id="path103"
       inkscape:connector-curvature="0" />
  </g>
  <text
     xml:space="preserve"
     style="font-style:normal;font-weight:normal;font-size:4.05809546px;line-height:1.25;font-family:sans-serif;letter-spacing:0px;word-spacing:0px;fill:#000000;fill-opacity:1;stroke:none;stroke-width:0.76089287"
     x="0.24365377"
     y="5.8550057"
     id="text33"
     transform="scale(0.7608929,1.3142454)"><tspan
       sodipodi:role="line"
       id="tspan31"
       x="0.24365377"
       y="5.8550057"
       style="fill:#ffffff;stroke-width:0.76089287">DEV</tspan></text>
  <text
     transform="scale(0.7608929,1.3142454)"
     id="text47"
     y="5.7260408"
     x="-0.023650419"
     style="font-style:normal;font-weight:normal;font-size:4.05809546px;line-height:1.25;font-family:sans-serif;letter-spacing:0px;word-spacing:0px;fill:#ff2a2a;fill-opacity:1;stroke:none;stroke-width:0.76089287"
     xml:space="preserve"><tspan
       style="fill:#ff2a2a;stroke-width:0.76089287"
       y="5.7260408"
       x="-0.023650419"
       id="tspan45"
       sodipodi:role="line">DEV</tspan></text>
</svg>
